2019-05-22 13:03:41,429 [1] INFO  Luma.Utils.Logs.Log4net.Log4Net [(null)] - Loge iniciado
2019-05-22 13:06:13,768 [1] INFO  Luma.Utils.Logs.Log4net.Log4Net [(null)] - Loge iniciado
2019-05-22 13:08:05,905 [1] INFO  Luma.Utils.Logs.Log4net.Log4Net [(null)] - Loge iniciado
