2020-03-14 11:10:39,921 [1] INFO  Luma.Utils.Logs.Log4net.Log4Net [(null)] - Inicio del Proceso: 14/03/2020 11:10:39 a. m.
2020-03-14 11:13:50,382 [1] INFO  Luma.Utils.Logs.Log4net.Log4Net [(null)] - Inicio del Proceso: 14/03/2020 11:13:50 a. m.
2020-03-14 11:15:25,394 [1] INFO  Luma.Utils.Logs.Log4net.Log4Net [(null)] - Inicio del Proceso: 14/03/2020 11:15:25 a. m.
2020-03-14 17:48:28,808 [1] INFO  Luma.Utils.Logs.Log4net.Log4Net [(null)] - Inicio del Proceso: 14/03/2020 05:48:28 p. m.
2020-03-14 17:54:45,635 [1] INFO  Luma.Utils.Logs.Log4net.Log4Net [(null)] - Fin del Proceso14/03/2020 05:54:45 p. m.
